asgiref==3.4.1
beautifulsoup4==4.10.0
certifi==2021.5.30
charset-normalizer==2.0.5
Django==3.2.7
djangorestframework==3.12.4
idna==3.2
pytz==2021.1
requests==2.26.0
soupsieve==2.2.1
sqlparse==0.4.2
typing-extensions==3.10.0.2
urllib3==1.26.6
